{
  "realm": "digitalenabler",
  "auth-server-url": "AUTH_PATH_VALUE",
  "ssl-required": "external",
  "resource": "dema-app",
  "credentials": {
    "secret": "SECRET_VALUE"
  },
  "confidential-port": 0,
  "use-resource-role-mappings": true
}